%YAML 1.1
%TAG !u! tag:unity3d.com,2011:
--- !u!162 &1
EditorUserSettings:
  m_ObjectHideFlags: 0
  serializedVersion: 4
  m_ConfigSettings:
    RecentlyUsedSceneGuid-0:
      value: 5a5200525c50590a5c5a5b7a42775d44474e1b2e2d7c76667e704535e0b2316f
      flags: 0
    RecentlyUsedSceneGuid-1:
      value: 07070c5654535b5e58570a7545265a44144e49732f2e73342c7d1867bae5673a
      flags: 0
    RecentlyUsedSceneGuid-2:
      value: 5a03035e53505b08090f5e2316775e44104f407a7f292736797d1e67b5b16669
      flags: 0
    RecentlyUsedSceneGuid-3:
      value: 07030d5453050d030956582149775d1441161b73797076672f7a1932bbb9306c
      flags: 0
    vcSharedLogLevel:
      value: 0d5e400f0650
      flags: 0
  m_VCAutomaticAdd: 1
  m_VCDebugCom: 0
  m_VCDebugCmd: 0
  m_VCDebugOut: 0
  m_SemanticMergeMode: 2
  m_DesiredImportWorkerCount: 4
  m_StandbyImportWorkerCount: 2
  m_IdleImportWorkerShutdownDelay: 60000
  m_VCShowFailedCheckout: 1
  m_VCOverwriteFailedCheckoutAssets: 1
  m_VCProjectOverlayIcons: 1
  m_VCHierarchyOverlayIcons: 1
  m_VCOtherOverlayIcons: 1
  m_VCAllowAsyncUpdate: 1
  m_ArtifactGarbageCollection: 1
